%TF.GenerationSoftware,KiCad,Pcbnew,5.99.0-unknown-5405c09~88~ubuntu18.04.1*%
%TF.CreationDate,2020-04-21T16:58:44+02:00*%
%TF.ProjectId,BMS,424d532e-6b69-4636-9164-5f7063625858,rev?*%
%TF.SameCoordinates,Original*%
%TF.FileFunction,Paste,Bot*%
%TF.FilePolarity,Positive*%
%FSLAX46Y46*%
G04 Gerber Fmt 4.6, Leading zero omitted, Abs format (unit mm)*
G04 Created by KiCad (PCBNEW 5.99.0-unknown-5405c09~88~ubuntu18.04.1) date 2020-04-21 16:58:44*
%MOMM*%
%LPD*%
G01*
G04 APERTURE LIST*
G04 APERTURE END LIST*
M02*
