M48
; DRILL file {KiCad 5.99.0-unknown-5405c09~88~ubuntu18.04.1} date Tue Apr 21 16:58:30 2020
; FORMAT={-:-/ absolute / inch / decimal}
; #@! TF.CreationDate,2020-04-21T16:58:30+02:00
; #@! TF.GenerationSoftware,Kicad,Pcbnew,5.99.0-unknown-5405c09~88~ubuntu18.04.1
; #@! TF.FileFunction,Plated,1,2,PTH
FMAT,2
INCH
T1C0.0157
T2C0.0236
T3C0.0315
T4C0.0394
T5C0.0630
T6C0.2087
%
G90
G05
T1
X2.8863Y-0.7286
X2.9185Y-0.0548
X3.0043Y0.1429
X3.0138Y-0.1354
X3.0768Y0.0991
T2
X2.5994Y-1.1024
X2.6452Y-0.9917
X2.6452Y-1.213
X2.7559Y-0.9459
X2.7559Y-1.2589
X2.8666Y-0.9917
X2.8666Y-1.213
X2.9124Y-1.1024
T3
X2.4409Y-1.0236
X2.4409Y-1.1024
T4
X2.6512Y-0.4921
X2.6512Y-0.5921
X2.7512Y-0.4921
X2.7512Y-0.5921
X2.8512Y-0.4921
X2.8512Y-0.5921
X2.9512Y-0.4921
X2.9512Y-0.5921
X3.0512Y-0.4921
X3.0512Y-0.5921
T5
X2.9921Y0.7283
X2.9921Y0.5906
X2.9921Y1.0433
X2.9921Y0.9055
T6
X2.7559Y-1.1024
T0
M30
