EESchema Schematic File Version 5
EELAYER 33 0
EELAYER END
$Descr A4 11693 8268
encoding utf-8
Sheet 1 1
Title ""
Date ""
Rev ""
Comp ""
Comment1 ""
Comment2 ""
Comment3 ""
Comment4 ""
Comment5 ""
Comment6 ""
Comment7 ""
Comment8 ""
Comment9 ""
$EndDescr
Connection ~ 6615 2460
Connection ~ 6615 1935
Connection ~ 7240 1935
Connection ~ 7240 2660
Connection ~ 7440 2660
Connection ~ 7240 2360
Connection ~ 8115 2310
Connection ~ 7240 2310
Connection ~ 2570 2210
Connection ~ 2570 1535
Connection ~ 6615 2310
Connection ~ 8690 4760
Connection ~ 6560 4920
Connection ~ 5650 1990
Connection ~ 5650 2090
Connection ~ 5650 2190
Connection ~ 5570 3530
Connection ~ 3760 1730
Connection ~ 3760 1535
Connection ~ 4740 2430
Connection ~ 4740 2730
Connection ~ 7810 4760
Connection ~ 7810 5100
Connection ~ 7810 5400
Connection ~ 8530 4660
Connection ~ 6615 2660
Connection ~ 5270 3230
Connection ~ 5010 3230
Connection ~ 5270 3530
Wire Wire Line
	2570 1535 2570 1810
Wire Wire Line
	2570 1535 3000 1535
Wire Wire Line
	2570 1910 2570 2210
Wire Wire Line
	2570 2210 2820 2210
Wire Wire Line
	3300 1535 3760 1535
Wire Wire Line
	3690 1730 3760 1730
Wire Wire Line
	3760 1530 3760 1535
Wire Wire Line
	3760 1535 3760 1730
Wire Wire Line
	3760 1730 3790 1730
Wire Wire Line
	4290 2630 4570 2630
Wire Wire Line
	4290 2730 4740 2730
Wire Wire Line
	4290 3230 4630 3230
Wire Wire Line
	4570 2430 4740 2430
Wire Wire Line
	4570 2630 4570 2430
Wire Wire Line
	4740 2430 4890 2430
Wire Wire Line
	4740 2730 4890 2730
Wire Wire Line
	4930 3230 5010 3230
Wire Wire Line
	5010 3230 5270 3230
Wire Wire Line
	5010 3530 5270 3530
Wire Wire Line
	5190 2430 5190 2730
Wire Wire Line
	5270 3530 5570 3530
Wire Wire Line
	5570 3430 5570 3530
Wire Wire Line
	5650 1890 5650 1990
Wire Wire Line
	5650 1990 5650 2090
Wire Wire Line
	5650 2090 5650 2190
Wire Wire Line
	5650 2190 5650 2340
Wire Wire Line
	5650 2340 5660 2340
Wire Wire Line
	6340 2310 6340 2360
Wire Wire Line
	6340 2310 6615 2310
Wire Wire Line
	6340 2660 6615 2660
Wire Wire Line
	6515 2460 6615 2460
Wire Wire Line
	6515 2560 6515 2460
Wire Wire Line
	6560 4920 6740 4920
Wire Wire Line
	6615 1935 6615 2310
Wire Wire Line
	6615 1935 7240 1935
Wire Wire Line
	6615 2310 6615 2460
Wire Wire Line
	6615 2660 7240 2660
Wire Wire Line
	7165 2310 7240 2310
Wire Wire Line
	7240 1935 8115 1935
Wire Wire Line
	7240 2235 7240 2310
Wire Wire Line
	7240 2310 7240 2360
Wire Wire Line
	7240 2360 7240 2385
Wire Wire Line
	7440 2660 7240 2660
Wire Wire Line
	7440 2660 8115 2660
Wire Wire Line
	7440 2860 7440 2660
Wire Wire Line
	7810 4760 7810 5100
Wire Wire Line
	7810 5100 7890 5100
Wire Wire Line
	7810 5400 8190 5400
Wire Wire Line
	8015 2310 8115 2310
Wire Wire Line
	8115 2235 8115 2310
Wire Wire Line
	8115 2310 8115 2460
Wire Wire Line
	8115 2660 8115 2560
Wire Wire Line
	8190 5400 8190 5300
Wire Wire Line
	8410 4660 8410 4560
Wire Wire Line
	8410 4760 8690 4760
Wire Wire Line
	8490 4900 8530 4900
Wire Wire Line
	8530 4660 8410 4660
Wire Wire Line
	8530 4660 8530 4900
Wire Wire Line
	8690 4760 8890 4760
Wire Wire Line
	8890 4660 8530 4660
Wire Notes Line
	5570 4080 5690 4080
Wire Notes Line
	5570 5390 5570 4080
Wire Notes Line
	5570 5390 5570 5520
Wire Notes Line
	5690 4080 9570 4080
Wire Notes Line
	6140 1385 6140 1535
Wire Notes Line
	6140 1535 6140 3135
Wire Notes Line
	6140 3135 9165 3135
Wire Notes Line
	9165 1385 6140 1385
Wire Notes Line
	9165 3135 9165 1385
Wire Notes Line
	9570 4080 9570 5390
Wire Notes Line
	9570 5390 9570 5520
Wire Notes Line
	9570 5520 5570 5520
Text Notes 6040 4190 2    50   ~ 0
BUS\n
Text Notes 7340 1480 2    50   ~ 0
Sensors\n
Text Label 3090 2030 2    50   ~ 0
Aref
Text Label 4290 2330 0    50   ~ 0
MOSI
Text Label 4290 2430 0    50   ~ 0
MISO
Text Label 4290 2530 0    50   ~ 0
SCK
Text Label 4290 2930 0    50   ~ 0
Ref_Supply
Text Label 4290 3030 0    50   ~ 0
Board_temp
Text Label 4290 3130 0    50   ~ 0
Batt_temp
Text Label 4290 3530 0    50   ~ 0
RST
Text Label 4290 3730 0    50   ~ 0
RX
Text Label 4290 3830 0    50   ~ 0
TX
Text Label 5150 1790 2    50   ~ 0
MOSI
Text Label 5150 1990 2    50   ~ 0
RST
Text Label 5150 2090 2    50   ~ 0
SCK
Text Label 5150 2190 2    50   ~ 0
MISO
Text Label 6340 2310 2    50   ~ 0
Aref
Text Label 6615 1635 2    50   ~ 0
Ref_Supply
Text Label 7040 4920 0    50   ~ 0
RX
Text Label 7165 2310 2    50   ~ 0
Board_temp
Text Label 7510 4760 2    50   ~ 0
TX
Text Label 8015 2310 2    50   ~ 0
Batt_temp
$Comp
L power:+BATT #PWR0107
U 1 1 5EA702BB
P 2570 1535
F 0 "#PWR0107" H 2570 1385 50  0001 C CNN
F 1 "+BATT" H 2585 1705 50  0000 C CNN
F 2 "" H 2570 1535 50  0001 C CNN
F 3 "" H 2570 1535 50  0001 C CNN
	1    2570 1535
	1    0    0    -1  
$EndComp
$Comp
L power:-BATT #PWR0108
U 1 1 5EA7082D
P 2570 2210
F 0 "#PWR0108" H 2570 2060 50  0001 C CNN
F 1 "-BATT" H 2585 2380 50  0000 C CNN
F 2 "" H 2570 2210 50  0001 C CNN
F 3 "" H 2570 2210 50  0001 C CNN
	1    2570 2210
	-1   0    0    1   
$EndComp
$Comp
L power:VCC #PWR0106
U 1 1 5EA7110A
P 3760 1535
F 0 "#PWR0106" H 3760 1385 50  0001 C CNN
F 1 "VCC" H 3775 1705 50  0000 C CNN
F 2 "" H 3760 1535 50  0001 C CNN
F 3 "" H 3760 1535 50  0001 C CNN
	1    3760 1535
	1    0    0    -1  
$EndComp
$Comp
L power:VCC #PWR0116
U 1 1 5EBCDD6E
P 4580 1500
F 0 "#PWR0116" H 4580 1350 50  0001 C CNN
F 1 "VCC" H 4595 1670 50  0000 C CNN
F 2 "" H 4580 1500 50  0001 C CNN
F 3 "" H 4580 1500 50  0001 C CNN
	1    4580 1500
	1    0    0    -1  
$EndComp
$Comp
L power:+BATT #PWR0104
U 1 1 5EAC7180
P 5570 2730
F 0 "#PWR0104" H 5570 2580 50  0001 C CNN
F 1 "+BATT" H 5585 2900 50  0000 C CNN
F 2 "" H 5570 2730 50  0001 C CNN
F 3 "" H 5570 2730 50  0001 C CNN
	1    5570 2730
	1    0    0    -1  
$EndComp
$Comp
L power:VCC #PWR0101
U 1 1 5EB59892
P 5650 1790
F 0 "#PWR0101" H 5650 1640 50  0001 C CNN
F 1 "VCC" H 5665 1960 50  0000 C CNN
F 2 "" H 5650 1790 50  0001 C CNN
F 3 "" H 5650 1790 50  0001 C CNN
	1    5650 1790
	1    0    0    -1  
$EndComp
$Comp
L power:VCC #PWR0112
U 1 1 5EAF935F
P 6560 4620
F 0 "#PWR0112" H 6560 4470 50  0001 C CNN
F 1 "VCC" H 6575 4790 50  0000 C CNN
F 2 "" H 6560 4620 50  0001 C CNN
F 3 "" H 6560 4620 50  0001 C CNN
	1    6560 4620
	1    0    0    -1  
$EndComp
$Comp
L power:VCC #PWR0113
U 1 1 5EBB63DF
P 7810 4560
F 0 "#PWR0113" H 7810 4410 50  0001 C CNN
F 1 "VCC" H 7825 4730 50  0000 C CNN
F 2 "" H 7810 4560 50  0001 C CNN
F 3 "" H 7810 4560 50  0001 C CNN
	1    7810 4560
	1    0    0    -1  
$EndComp
$Comp
L power:VCC #PWR0111
U 1 1 5EAEC15C
P 8690 5060
F 0 "#PWR0111" H 8690 4910 50  0001 C CNN
F 1 "VCC" H 8705 5230 50  0000 C CNN
F 2 "" H 8690 5060 50  0001 C CNN
F 3 "" H 8690 5060 50  0001 C CNN
	1    8690 5060
	-1   0    0    1   
$EndComp
$Comp
L power:GND #PWR0109
U 1 1 5EA70DE9
P 2820 2210
F 0 "#PWR0109" H 2820 1960 50  0001 C CNN
F 1 "GND" H 2825 2040 50  0000 C CNN
F 2 "" H 2820 2210 50  0001 C CNN
F 3 "" H 2820 2210 50  0001 C CNN
	1    2820 2210
	1    0    0    -1  
$EndComp
$Comp
L power:GND #PWR0102
U 1 1 5EAAA653
P 3690 4730
F 0 "#PWR0102" H 3690 4480 50  0001 C CNN
F 1 "GND" H 3695 4560 50  0000 C CNN
F 2 "" H 3690 4730 50  0001 C CNN
F 3 "" H 3690 4730 50  0001 C CNN
	1    3690 4730
	1    0    0    -1  
$EndComp
$Comp
L power:GND #PWR0115
U 1 1 5EBD1FC0
P 4580 1800
F 0 "#PWR0115" H 4580 1550 50  0001 C CNN
F 1 "GND" H 4585 1630 50  0000 C CNN
F 2 "" H 4580 1800 50  0001 C CNN
F 3 "" H 4580 1800 50  0001 C CNN
	1    4580 1800
	1    0    0    -1  
$EndComp
$Comp
L power:GND #PWR0103
U 1 1 5EAC68D3
P 5570 3530
F 0 "#PWR0103" H 5570 3280 50  0001 C CNN
F 1 "GND" H 5575 3360 50  0000 C CNN
F 2 "" H 5570 3530 50  0001 C CNN
F 3 "" H 5570 3530 50  0001 C CNN
	1    5570 3530
	1    0    0    -1  
$EndComp
$Comp
L power:GND #PWR0105
U 1 1 5EB56252
P 5660 2340
F 0 "#PWR0105" H 5660 2090 50  0001 C CNN
F 1 "GND" H 5820 2300 50  0000 C CNN
F 2 "" H 5660 2340 50  0001 C CNN
F 3 "" H 5660 2340 50  0001 C CNN
	1    5660 2340
	1    0    0    -1  
$EndComp
$Comp
L power:GND #PWR0114
U 1 1 5EB00A28
P 6560 5020
F 0 "#PWR0114" H 6560 4770 50  0001 C CNN
F 1 "GND" H 6565 4850 50  0000 C CNN
F 2 "" H 6560 5020 50  0001 C CNN
F 3 "" H 6560 5020 50  0001 C CNN
	1    6560 5020
	1    0    0    -1  
$EndComp
$Comp
L power:GND #PWR0110
U 1 1 5EA9BE3A
P 7440 2860
F 0 "#PWR0110" H 7440 2610 50  0001 C CNN
F 1 "GND" H 7445 2690 50  0000 C CNN
F 2 "" H 7440 2860 50  0001 C CNN
F 3 "" H 7440 2860 50  0001 C CNN
	1    7440 2860
	1    0    0    -1  
$EndComp
$Comp
L power:GND #PWR01
U 1 1 5EA87614
P 7810 5400
F 0 "#PWR01" H 7810 5150 50  0001 C CNN
F 1 "GND" H 7590 5380 50  0000 C CNN
F 2 "" H 7810 5400 50  0001 C CNN
F 3 "" H 7810 5400 50  0001 C CNN
	1    7810 5400
	1    0    0    -1  
$EndComp
$Comp
L Connector:Conn_01x01_Male J1
U 1 1 5EBD8A7F
P 2370 1810
F 0 "J1" H 2476 1986 50  0000 C CNN
F 1 "Batt+" H 2250 1830 50  0000 C CNN
F 2 "MountingHole:MountingHole_5.3mm_M5_Pad_Via" H 2370 1810 50  0001 C CNN
F 3 "~" H 2370 1810 50  0001 C CNN
	1    2370 1810
	1    0    0    -1  
$EndComp
$Comp
L Connector:Conn_01x01_Male J6
U 1 1 5EBD95B1
P 2370 1910
F 0 "J6" H 2476 2086 50  0000 C CNN
F 1 "Batt" H 2260 1910 50  0000 C CNN
F 2 "TestPoint:TestPoint_Pad_4.0x4.0mm" H 2370 1910 50  0001 C CNN
F 3 "~" H 2370 1910 50  0001 C CNN
	1    2370 1910
	1    0    0    -1  
$EndComp
$Comp
L Device:R R1
U 1 1 5EA6EFD9
P 3150 1535
F 0 "R1" V 3356 1535 50  0000 C CNN
F 1 "10" V 3265 1535 50  0000 C CNN
F 2 "Resistor_SMD:R_0805_2012Metric" V 3080 1535 50  0001 C CNN
F 3 "~" H 3150 1535 50  0001 C CNN
	1    3150 1535
	0    -1   -1   0   
$EndComp
$Comp
L Device:R R2
U 1 1 5EAC62C9
P 5270 3380
F 0 "R2" H 5340 3425 50  0000 L CNN
F 1 "10k" H 5340 3335 50  0000 L CNN
F 2 "Resistor_SMD:R_0805_2012Metric" V 5200 3380 50  0001 C CNN
F 3 "~" H 5270 3380 50  0001 C CNN
	1    5270 3380
	1    0    0    -1  
$EndComp
$Comp
L Device:R R3
U 1 1 5EA7CB9C
P 5570 2880
F 0 "R3" H 5640 2925 50  0000 L CNN
F 1 "22" H 5640 2835 50  0000 L CNN
F 2 "Resistor_SMD:R_2816_7142Metric" V 5500 2880 50  0001 C CNN
F 3 "~" H 5570 2880 50  0001 C CNN
	1    5570 2880
	1    0    0    -1  
$EndComp
$Comp
L Device:R R4
U 1 1 5EAE75E3
P 6560 4770
F 0 "R4" H 6490 4725 50  0000 R CNN
F 1 "10k" H 6490 4815 50  0000 R CNN
F 2 "Resistor_SMD:R_0805_2012Metric" V 6490 4770 50  0001 C CNN
F 3 "~" H 6560 4770 50  0001 C CNN
	1    6560 4770
	-1   0    0    1   
$EndComp
$Comp
L Device:R R5
U 1 1 5EA761EF
P 6615 1785
F 0 "R5" H 6685 1830 50  0000 L CNN
F 1 "1k" H 6685 1740 50  0000 L CNN
F 2 "Resistor_SMD:R_0805_2012Metric" V 6545 1785 50  0001 C CNN
F 3 "~" H 6615 1785 50  0001 C CNN
	1    6615 1785
	1    0    0    -1  
$EndComp
$Comp
L Device:R R6
U 1 1 5EB0842A
P 6890 4920
F 0 "R6" V 7096 4920 50  0000 C CNN
F 1 "1k" V 7005 4920 50  0000 C CNN
F 2 "Resistor_SMD:R_0805_2012Metric" V 6820 4920 50  0001 C CNN
F 3 "~" H 6890 4920 50  0001 C CNN
	1    6890 4920
	0    -1   -1   0   
$EndComp
$Comp
L Device:R R7
U 1 1 5EA73841
P 7240 2085
F 0 "R7" H 7310 2130 50  0000 L CNN
F 1 "10k" H 7310 2040 50  0000 L CNN
F 2 "Resistor_SMD:R_0805_2012Metric" V 7170 2085 50  0001 C CNN
F 3 "~" H 7240 2085 50  0001 C CNN
	1    7240 2085
	1    0    0    -1  
$EndComp
$Comp
L Device:R R8
U 1 1 5EADF7D6
P 7660 4760
F 0 "R8" V 7866 4760 50  0000 C CNN
F 1 "1k" V 7775 4760 50  0000 C CNN
F 2 "Resistor_SMD:R_0805_2012Metric" V 7590 4760 50  0001 C CNN
F 3 "~" H 7660 4760 50  0001 C CNN
	1    7660 4760
	0    -1   -1   0   
$EndComp
$Comp
L Device:R R10
U 1 1 5EA7E0F9
P 7810 5250
F 0 "R10" V 8016 5250 50  0000 C CNN
F 1 "10k" V 7925 5250 50  0000 C CNN
F 2 "Resistor_SMD:R_0805_2012Metric" V 7740 5250 50  0001 C CNN
F 3 "~" H 7810 5250 50  0001 C CNN
	1    7810 5250
	-1   0    0    1   
$EndComp
$Comp
L Device:R R9
U 1 1 5EA73CD2
P 8115 2085
F 0 "R9" H 8185 2130 50  0000 L CNN
F 1 "10k" H 8185 2040 50  0000 L CNN
F 2 "Resistor_SMD:R_0805_2012Metric" V 8045 2085 50  0001 C CNN
F 3 "~" H 8115 2085 50  0001 C CNN
	1    8115 2085
	1    0    0    -1  
$EndComp
$Comp
L Device:R R11
U 1 1 5EA9528A
P 8340 4900
F 0 "R11" V 8340 4730 50  0000 R CNN
F 1 "10k" V 8340 4950 50  0000 R CNN
F 2 "Resistor_SMD:R_0805_2012Metric" V 8270 4900 50  0001 C CNN
F 3 "~" H 8340 4900 50  0001 C CNN
	1    8340 4900
	0    1    1    0   
$EndComp
$Comp
L Device:R DNP120
U 1 1 5EAE23A8
P 8690 4910
F 0 "DNP120" H 8620 4865 50  0000 R CNN
F 1 "120" H 8620 4955 50  0000 R CNN
F 2 "Resistor_SMD:R_0805_2012Metric" V 8620 4910 50  0001 C CNN
F 3 "~" H 8690 4910 50  0001 C CNN
	1    8690 4910
	-1   0    0    1   
$EndComp
$Comp
L Device:D D1
U 1 1 5EAADAA7
P 5010 3380
F 0 "D1" V 5055 3300 50  0000 R CNN
F 1 "D" V 4965 3300 50  0000 R CNN
F 2 "" H 5010 3380 50  0001 C CNN
F 3 "~" H 5010 3380 50  0001 C CNN
	1    5010 3380
	0    -1   -1   0   
$EndComp
$Comp
L Reference_Voltage:TL432DBZ U2
U 1 1 5EA71978
P 6615 2560
F 0 "U2" V 6660 2490 50  0000 R CNN
F 1 "TL432DBZ" V 6570 2490 50  0000 R CNN
F 2 "Package_TO_SOT_SMD:SOT-23" H 6615 2410 50  0001 C CIN
F 3 "http://www.ti.com/lit/ds/symlink/tl431.pdf" H 6615 2560 50  0001 C CIN
	1    6615 2560
	0    -1   -1   0   
$EndComp
$Comp
L Connector:Conn_01x02_Male J3
U 1 1 5EAFCDD0
P 6360 4920
F 0 "J3" H 6466 5096 50  0000 C CNN
F 1 "Data_IN" H 5980 4870 50  0000 C CNN
F 2 "Connector_Wago:Wago_734-132_1x02_P3.50mm_Vertical" H 6360 4920 50  0001 C CNN
F 3 "~" H 6360 4920 50  0001 C CNN
	1    6360 4920
	1    0    0    -1  
$EndComp
$Comp
L Connector:Conn_01x02_Male J4
U 1 1 5EA731D9
P 8315 2560
F 0 "J4" H 8287 2443 50  0000 R CNN
F 1 "Thermistor_Battery" H 8265 2560 50  0000 R CNN
F 2 "Connector_PinHeader_2.00mm:PinHeader_1x02_P2.00mm_Vertical" H 8315 2560 50  0001 C CNN
F 3 "~" H 8315 2560 50  0001 C CNN
	1    8315 2560
	-1   0    0    1   
$EndComp
$Comp
L Connector:Conn_01x02_Male J5
U 1 1 5EAF59CB
P 9090 4760
F 0 "J5" H 9062 4643 50  0000 R CNN
F 1 "Data_OUT" H 9062 4733 50  0000 R CNN
F 2 "Connector_Wago:Wago_734-132_1x02_P3.50mm_Vertical" H 9090 4760 50  0001 C CNN
F 3 "~" H 9090 4760 50  0001 C CNN
	1    9090 4760
	-1   0    0    1   
$EndComp
$Comp
L Device:C C4
U 1 1 5EBC7D16
P 4580 1650
F 0 "C4" V 4410 1720 50  0000 C CNN
F 1 "10n" V 4740 1650 50  0000 C CNN
F 2 "Capacitor_SMD:C_0805_2012Metric" H 4618 1500 50  0001 C CNN
F 3 "~" H 4580 1650 50  0001 C CNN
	1    4580 1650
	1    0    0    -1  
$EndComp
$Comp
L Device:C C3
U 1 1 5EAC5EDD
P 4780 3230
F 0 "C3" V 4610 3300 50  0000 C CNN
F 1 "10n" V 4940 3230 50  0000 C CNN
F 2 "Capacitor_SMD:C_0805_2012Metric" H 4818 3080 50  0001 C CNN
F 3 "~" H 4780 3230 50  0001 C CNN
	1    4780 3230
	0    -1   -1   0   
$EndComp
$Comp
L Device:C C1
U 1 1 5EBA7151
P 5040 2430
F 0 "C1" V 5160 2330 50  0000 C CNN
F 1 "22p" V 5180 2510 50  0000 C CNN
F 2 "Capacitor_SMD:C_0805_2012Metric" H 5078 2280 50  0001 C CNN
F 3 "~" H 5040 2430 50  0001 C CNN
	1    5040 2430
	0    -1   -1   0   
$EndComp
$Comp
L Device:C C2
U 1 1 5EBA3751
P 5040 2730
F 0 "C2" V 4980 2570 50  0000 C CNN
F 1 "22p" V 4890 2730 50  0000 C CNN
F 2 "Capacitor_SMD:C_0805_2012Metric" H 5078 2580 50  0001 C CNN
F 3 "~" H 5040 2730 50  0001 C CNN
	1    5040 2730
	0    -1   -1   0   
$EndComp
$Comp
L Device:C C5
U 1 1 5EAA4EE2
P 6340 2510
F 0 "C5" V 6460 2410 50  0000 C CNN
F 1 "22p" V 6480 2590 50  0000 C CNN
F 2 "Capacitor_SMD:C_0805_2012Metric" H 6378 2360 50  0001 C CNN
F 3 "~" H 6340 2510 50  0001 C CNN
	1    6340 2510
	-1   0    0    1   
$EndComp
$Comp
L Device:Thermistor_NTC TH1
U 1 1 5EA72913
P 7240 2510
F 0 "TH1" H 7335 2555 50  0000 L CNN
F 1 "Thermistor_Board" H 7335 2465 50  0000 L CNN
F 2 "Resistor_SMD:R_0805_2012Metric" H 7240 2560 50  0001 C CNN
F 3 "~" H 7240 2560 50  0001 C CNN
	1    7240 2510
	1    0    0    -1  
$EndComp
$Comp
L Device:Crystal Y1
U 1 1 5EBA1857
P 4740 2580
F 0 "Y1" V 4785 2449 50  0000 R CNN
F 1 "8M" V 4695 2449 50  0000 R CNN
F 2 "Crystal:Crystal_SMD_HC49-SD_HandSoldering" H 4740 2580 50  0001 C CNN
F 3 "~" H 4740 2580 50  0001 C CNN
	1    4740 2580
	0    -1   -1   0   
$EndComp
$Comp
L Device:Q_NMOS_GSD Q1
U 1 1 5EA7839F
P 5470 3230
F 0 "Q1" H 5675 3275 50  0000 L CNN
F 1 "AO3400" H 5675 3185 50  0000 L CNN
F 2 "Package_TO_SOT_SMD:SOT-23" H 5670 3330 50  0001 C CNN
F 3 "~" H 5470 3230 50  0001 C CNN
	1    5470 3230
	1    0    0    -1  
$EndComp
$Comp
L Device:Q_NMOS_GSD Q2
U 1 1 5EA75BD8
P 8090 5100
F 0 "Q2" H 8295 5145 50  0000 L CNN
F 1 "2n7002" H 8295 5055 50  0000 L CNN
F 2 "Package_TO_SOT_SMD:SOT-23" H 8290 5200 50  0001 C CNN
F 3 "~" H 8090 5100 50  0001 C CNN
	1    8090 5100
	1    0    0    -1  
$EndComp
$Comp
L Isolator:EL817 U3
U 1 1 5EAD6F23
P 8110 4660
F 0 "U3" H 8110 4980 50  0000 C CNN
F 1 "EL817" H 8110 4889 50  0000 C CNN
F 2 "Package_DIP:DIP-4_W8.89mm_SMDSocket_LongPads" H 7910 4460 50  0001 L CIN
F 3 "http://www.everlight.com/file/ProductFile/EL817.pdf" H 8110 4660 50  0001 L CNN
	1    8110 4660
	1    0    0    -1  
$EndComp
$Comp
L Connector_Generic:Conn_02x05_Odd_Even J2
U 1 1 5EA7A0AC
P 5350 1990
F 0 "J2" H 5400 2406 50  0000 C CNN
F 1 "Conn_02x05_Odd_Even" H 5400 2315 50  0000 C CNN
F 2 "Connector_PinHeader_2.54mm:PinHeader_2x05_P2.54mm_Vertical" H 5350 1990 50  0001 C CNN
F 3 "~" H 5350 1990 50  0001 C CNN
	1    5350 1990
	1    0    0    -1  
$EndComp
$Comp
L MCU_Microchip_ATmega:ATmega48PA-AU U1
U 1 1 5EB709C7
P 3690 3230
F 0 "U1" H 3690 1645 50  0000 C CNN
F 1 "ATmega48PA-AU" H 3690 1554 50  0000 C CNN
F 2 "Package_QFP:TQFP-32_7x7mm_P0.8mm" H 3690 3230 50  0001 C CIN
F 3 "http://ww1.microchip.com/downloads/en/DeviceDoc/ATmega48PA_88PA_168PA-Data-Sheet-40002011A.pdf" H 3690 3230 50  0001 C CNN
	1    3690 3230
	1    0    0    -1  
$EndComp
$EndSCHEMATC
